\relax 
\@writefile{toc}{\contentsline {section}{\numberline {1}How did we implement the lexer}{1}}
\@writefile{toc}{\contentsline {subsection}{\numberline {1.1}How did we implement nested comments}{1}}
\@writefile{toc}{\contentsline {subsection}{\numberline {1.2}How did we implement escape codes}{2}}
\@writefile{toc}{\contentsline {subsection}{\numberline {1.3}Problems}{2}}
\@writefile{toc}{\contentsline {section}{\numberline {2}5 tiger programs}{2}}
\@writefile{toc}{\contentsline {section}{\numberline {3}How did we split the work}{3}}
