\relax 
\@writefile{toc}{\contentsline {section}{\numberline {1}How did we make the interpreter}{1}}
\@writefile{toc}{\contentsline {section}{\numberline {2}Problems experienced}{1}}
\@writefile{toc}{\contentsline {section}{\numberline {3}Additional statements tested}{2}}
\@writefile{toc}{\contentsline {section}{\numberline {4}How did we split the work}{3}}
